^C:\USERS\OANA HEREDEA\DESKTOP\LAB9\OPENGL_4_APPLICATION_VS2015\OPENGL_4_APPLICATION_VS2015\DEBUG\CAMERA.OBJ|C:\USERS\OANA HEREDEA\DESKTOP\LAB9\OPENGL_4_APPLICATION_VS2015\OPENGL_4_APPLICATION_VS2015\DEBUG\MESH.OBJ|C:\USERS\OANA HEREDEA\DESKTOP\LAB9\OPENGL_4_APPLICATION_VS2015\OPENGL_4_APPLICATION_VS2015\DEBUG\MODEL3D.OBJ|C:\USERS\OANA HEREDEA\DESKTOP\LAB9\OPENGL_4_APPLICATION_VS2015\OPENGL_4_APPLICATION_VS2015\DEBUG\OPENGL_4_APPLICATION_VS2015.OBJ|C:\USERS\OANA HEREDEA\DESKTOP\LAB9\OPENGL_4_APPLICATION_VS2015\OPENGL_4_APPLICATION_VS2015\DEBUG\SHADER.OBJ|C:\USERS\OANA HEREDEA\DESKTOP\LAB9\OPENGL_4_APPLICATION_VS2015\OPENGL_4_APPLICATION_VS2015\DEBUG\SKYBOX.OBJ|C:\USERS\OANA HEREDEA\DESKTOP\LAB9\OPENGL_4_APPLICATION_VS2015\OPENGL_4_APPLICATION_VS2015\DEBUG\STB_IMAGE.OBJ|C:\USERS\OANA HEREDEA\DESKTOP\LAB9\OPENGL_4_APPLICATION_VS2015\OPENGL_4_APPLICATION_VS2015\DEBUG\STDAFX.OBJ
C:\WINDOWS\GLOBALIZATION\SORTING\SORTDEFAULT.NLS
C:\PROGRAM FILES (X86)\MICROSOFT VISUAL STUDIO\2017\COMMUNITY\VC\TOOLS\MSVC\14.12.25827\LIB\X86\LEGACY_STDIO_DEFINITIONS.LIB
C:\USERS\OANA HEREDEA\DESKTOP\LAB9\OPENGL_4_APPLICATION_VS2015\OPENGL_4_APPLICATION_VS2015\GLFW\GLFW3.LIB
C:\USERS\OANA HEREDEA\DESKTOP\LAB9\OPENGL_4_APPLICATION_VS2015\OPENGL_4_APPLICATION_VS2015\GLEW\GLEW32S.LIB
C:\PROGRAM FILES (X86)\WINDOWS KITS\10\LIB\10.0.15063.0\UM\X86\OPENGL32.LIB
C:\PROGRAM FILES (X86)\WINDOWS KITS\10\LIB\10.0.15063.0\UM\X86\KERNEL32.LIB
C:\PROGRAM FILES (X86)\WINDOWS KITS\10\LIB\10.0.15063.0\UM\X86\USER32.LIB
C:\PROGRAM FILES (X86)\WINDOWS KITS\10\LIB\10.0.15063.0\UM\X86\GDI32.LIB
C:\PROGRAM FILES (X86)\WINDOWS KITS\10\LIB\10.0.15063.0\UM\X86\WINSPOOL.LIB
C:\PROGRAM FILES (X86)\WINDOWS KITS\10\LIB\10.0.15063.0\UM\X86\COMDLG32.LIB
C:\PROGRAM FILES (X86)\WINDOWS KITS\10\LIB\10.0.15063.0\UM\X86\ADVAPI32.LIB
C:\PROGRAM FILES (X86)\WINDOWS KITS\10\LIB\10.0.15063.0\UM\X86\SHELL32.LIB
C:\PROGRAM FILES (X86)\WINDOWS KITS\10\LIB\10.0.15063.0\UM\X86\OLE32.LIB
C:\PROGRAM FILES (X86)\WINDOWS KITS\10\LIB\10.0.15063.0\UM\X86\OLEAUT32.LIB
C:\PROGRAM FILES (X86)\WINDOWS KITS\10\LIB\10.0.15063.0\UM\X86\UUID.LIB
C:\PROGRAM FILES (X86)\WINDOWS KITS\10\LIB\10.0.15063.0\UM\X86\ODBC32.LIB
C:\PROGRAM FILES (X86)\WINDOWS KITS\10\LIB\10.0.15063.0\UM\X86\ODBCCP32.LIB
C:\USERS\OANA HEREDEA\DESKTOP\LAB9\OPENGL_4_APPLICATION_VS2015\OPENGL_4_APPLICATION_VS2015\DEBUG\CAMERA.OBJ
C:\USERS\OANA HEREDEA\DESKTOP\LAB9\OPENGL_4_APPLICATION_VS2015\OPENGL_4_APPLICATION_VS2015\DEBUG\MESH.OBJ
C:\USERS\OANA HEREDEA\DESKTOP\LAB9\OPENGL_4_APPLICATION_VS2015\OPENGL_4_APPLICATION_VS2015\DEBUG\MODEL3D.OBJ
C:\USERS\OANA HEREDEA\DESKTOP\LAB9\OPENGL_4_APPLICATION_VS2015\OPENGL_4_APPLICATION_VS2015\DEBUG\OPENGL_4_APPLICATION_VS2015.OBJ
C:\USERS\OANA HEREDEA\DESKTOP\LAB9\OPENGL_4_APPLICATION_VS2015\OPENGL_4_APPLICATION_VS2015\DEBUG\SHADER.OBJ
C:\USERS\OANA HEREDEA\DESKTOP\LAB9\OPENGL_4_APPLICATION_VS2015\OPENGL_4_APPLICATION_VS2015\DEBUG\SKYBOX.OBJ
C:\USERS\OANA HEREDEA\DESKTOP\LAB9\OPENGL_4_APPLICATION_VS2015\OPENGL_4_APPLICATION_VS2015\DEBUG\STB_IMAGE.OBJ
C:\USERS\OANA HEREDEA\DESKTOP\LAB9\OPENGL_4_APPLICATION_VS2015\OPENGL_4_APPLICATION_VS2015\DEBUG\STDAFX.OBJ
C:\WINDOWS\SYSTEM32\TZRES.DLL
C:\PROGRAM FILES (X86)\MICROSOFT VISUAL STUDIO\2017\COMMUNITY\VC\TOOLS\MSVC\14.12.25827\LIB\X86\MSVCPRTD.LIB
C:\PROGRAM FILES (X86)\MICROSOFT VISUAL STUDIO\2017\COMMUNITY\VC\TOOLS\MSVC\14.12.25827\LIB\X86\MSVCRTD.LIB
C:\PROGRAM FILES (X86)\MICROSOFT VISUAL STUDIO\2017\COMMUNITY\VC\TOOLS\MSVC\14.12.25827\LIB\X86\OLDNAMES.LIB
C:\PROGRAM FILES (X86)\MICROSOFT VISUAL STUDIO\2017\COMMUNITY\VC\TOOLS\MSVC\14.12.25827\LIB\X86\MSVCRT.LIB
C:\PROGRAM FILES (X86)\MICROSOFT VISUAL STUDIO\2017\COMMUNITY\VC\TOOLS\MSVC\14.12.25827\LIB\X86\LIBCMT.LIB
C:\PROGRAM FILES (X86)\MICROSOFT VISUAL STUDIO\2017\COMMUNITY\VC\TOOLS\MSVC\14.12.25827\LIB\X86\VCRUNTIMED.LIB
C:\PROGRAM FILES (X86)\WINDOWS KITS\10\LIB\10.0.15063.0\UCRT\X86\UCRTD.LIB
