^C:\USERS\OANA HEREDEA\DESKTOP\SPG\LAB9\OPENGL_4_APPLICATION_VS2015\OPENGL_4_APPLICATION_VS2015\STDAFX.CPP
C:\USERS\OANA HEREDEA\DESKTOP\SPG\LAB9\OPENGL_4_APPLICATION_VS2015\OPENGL_4_APPLICATION_VS2015\RELEASE\OPENGL_4_APPLICATION_VS2015.PCH
C:\USERS\OANA HEREDEA\DESKTOP\SPG\LAB9\OPENGL_4_APPLICATION_VS2015\OPENGL_4_APPLICATION_VS2015\RELEASE\VC141.PDB
C:\USERS\OANA HEREDEA\DESKTOP\SPG\LAB9\OPENGL_4_APPLICATION_VS2015\OPENGL_4_APPLICATION_VS2015\RELEASE\STDAFX.OBJ
^C:\USERS\OANA HEREDEA\DESKTOP\SPG\LAB9\OPENGL_4_APPLICATION_VS2015\OPENGL_4_APPLICATION_VS2015\CAMERA.CPP|C:\USERS\OANA HEREDEA\DESKTOP\SPG\LAB9\OPENGL_4_APPLICATION_VS2015\OPENGL_4_APPLICATION_VS2015\MESH.CPP|C:\USERS\OANA HEREDEA\DESKTOP\SPG\LAB9\OPENGL_4_APPLICATION_VS2015\OPENGL_4_APPLICATION_VS2015\MODEL3D.CPP|C:\USERS\OANA HEREDEA\DESKTOP\SPG\LAB9\OPENGL_4_APPLICATION_VS2015\OPENGL_4_APPLICATION_VS2015\OPENGL_4_APPLICATION_VS2015.CPP|C:\USERS\OANA HEREDEA\DESKTOP\SPG\LAB9\OPENGL_4_APPLICATION_VS2015\OPENGL_4_APPLICATION_VS2015\SHADER.CPP|C:\USERS\OANA HEREDEA\DESKTOP\SPG\LAB9\OPENGL_4_APPLICATION_VS2015\OPENGL_4_APPLICATION_VS2015\SKYBOX.CPP
C:\USERS\OANA HEREDEA\DESKTOP\SPG\LAB9\OPENGL_4_APPLICATION_VS2015\OPENGL_4_APPLICATION_VS2015\RELEASE\VC141.PDB
C:\USERS\OANA HEREDEA\DESKTOP\SPG\LAB9\OPENGL_4_APPLICATION_VS2015\OPENGL_4_APPLICATION_VS2015\RELEASE\SKYBOX.OBJ
C:\USERS\OANA HEREDEA\DESKTOP\SPG\LAB9\OPENGL_4_APPLICATION_VS2015\OPENGL_4_APPLICATION_VS2015\RELEASE\SHADER.OBJ
C:\USERS\OANA HEREDEA\DESKTOP\SPG\LAB9\OPENGL_4_APPLICATION_VS2015\OPENGL_4_APPLICATION_VS2015\RELEASE\OPENGL_4_APPLICATION_VS2015.OBJ
C:\USERS\OANA HEREDEA\DESKTOP\SPG\LAB9\OPENGL_4_APPLICATION_VS2015\OPENGL_4_APPLICATION_VS2015\RELEASE\MODEL3D.OBJ
C:\USERS\OANA HEREDEA\DESKTOP\SPG\LAB9\OPENGL_4_APPLICATION_VS2015\OPENGL_4_APPLICATION_VS2015\RELEASE\MESH.OBJ
C:\USERS\OANA HEREDEA\DESKTOP\SPG\LAB9\OPENGL_4_APPLICATION_VS2015\OPENGL_4_APPLICATION_VS2015\RELEASE\CAMERA.OBJ
^C:\USERS\OANA HEREDEA\DESKTOP\SPG\LAB9\OPENGL_4_APPLICATION_VS2015\OPENGL_4_APPLICATION_VS2015\CAMERA.CPP
C:\USERS\OANA HEREDEA\DESKTOP\SPG\LAB9\OPENGL_4_APPLICATION_VS2015\OPENGL_4_APPLICATION_VS2015\RELEASE\VC141.PDB
^C:\USERS\OANA HEREDEA\DESKTOP\SPG\LAB9\OPENGL_4_APPLICATION_VS2015\OPENGL_4_APPLICATION_VS2015\MESH.CPP
C:\USERS\OANA HEREDEA\DESKTOP\SPG\LAB9\OPENGL_4_APPLICATION_VS2015\OPENGL_4_APPLICATION_VS2015\RELEASE\VC141.PDB
^C:\USERS\OANA HEREDEA\DESKTOP\SPG\LAB9\OPENGL_4_APPLICATION_VS2015\OPENGL_4_APPLICATION_VS2015\MODEL3D.CPP
C:\USERS\OANA HEREDEA\DESKTOP\SPG\LAB9\OPENGL_4_APPLICATION_VS2015\OPENGL_4_APPLICATION_VS2015\RELEASE\VC141.PDB
^C:\USERS\OANA HEREDEA\DESKTOP\SPG\LAB9\OPENGL_4_APPLICATION_VS2015\OPENGL_4_APPLICATION_VS2015\OPENGL_4_APPLICATION_VS2015.CPP
C:\USERS\OANA HEREDEA\DESKTOP\SPG\LAB9\OPENGL_4_APPLICATION_VS2015\OPENGL_4_APPLICATION_VS2015\RELEASE\VC141.PDB
^C:\USERS\OANA HEREDEA\DESKTOP\SPG\LAB9\OPENGL_4_APPLICATION_VS2015\OPENGL_4_APPLICATION_VS2015\SHADER.CPP
C:\USERS\OANA HEREDEA\DESKTOP\SPG\LAB9\OPENGL_4_APPLICATION_VS2015\OPENGL_4_APPLICATION_VS2015\RELEASE\VC141.PDB
^C:\USERS\OANA HEREDEA\DESKTOP\SPG\LAB9\OPENGL_4_APPLICATION_VS2015\OPENGL_4_APPLICATION_VS2015\SKYBOX.CPP
C:\USERS\OANA HEREDEA\DESKTOP\SPG\LAB9\OPENGL_4_APPLICATION_VS2015\OPENGL_4_APPLICATION_VS2015\RELEASE\VC141.PDB
^C:\USERS\OANA HEREDEA\DESKTOP\SPG\LAB9\OPENGL_4_APPLICATION_VS2015\OPENGL_4_APPLICATION_VS2015\STB_IMAGE.C
C:\USERS\OANA HEREDEA\DESKTOP\SPG\LAB9\OPENGL_4_APPLICATION_VS2015\OPENGL_4_APPLICATION_VS2015\RELEASE\VC141.PDB
C:\USERS\OANA HEREDEA\DESKTOP\SPG\LAB9\OPENGL_4_APPLICATION_VS2015\OPENGL_4_APPLICATION_VS2015\RELEASE\STB_IMAGE.OBJ
