# Blender v2.79 (sub 0) OBJ File: 'SolarSystem.blend'
# www.blender.org
mtllib Sun.mtl
o Sun_Sphere
v -0.009286 -2.104778 -0.062466
v 0.066835 1.856793 -0.445150
v 0.140030 1.742981 -0.813127
v 0.207487 1.558161 -1.152257
v 0.266614 1.309436 -1.449506
v 0.315138 1.006363 -1.693453
v 0.351194 0.660589 -1.874721
v 0.373398 0.285403 -1.986346
v 0.380895 -0.104778 -2.024037
v 0.373398 -0.494958 -1.986346
v 0.351194 -0.870144 -1.874722
v 0.315138 -1.215918 -1.693453
v 0.266614 -1.518991 -1.449506
v 0.207487 -1.767717 -1.152257
v 0.140030 -1.952537 -0.813127
v 0.066835 -2.066349 -0.445150
v 0.140030 1.856793 -0.422947
v 0.283608 1.742981 -0.769573
v 0.415930 1.558161 -1.089026
v 0.531911 1.309436 -1.369029
v 0.627094 1.006363 -1.598822
v 0.697821 0.660589 -1.769573
v 0.741375 0.285403 -1.874721
v 0.756081 -0.104778 -1.910226
v 0.741375 -0.494958 -1.874721
v 0.697821 -0.870144 -1.769573
v 0.627094 -1.215918 -1.598822
v 0.531911 -1.518991 -1.369029
v 0.415930 -1.767717 -1.089026
v 0.283608 -1.952537 -0.769573
v 0.140030 -2.066349 -0.422946
v 0.207487 1.856793 -0.386890
v 0.415930 1.742981 -0.698846
v 0.608031 1.558161 -0.986346
v 0.776410 1.309436 -1.238342
v 0.914594 1.006363 -1.445150
v 1.017274 0.660589 -1.598822
v 1.080505 0.285403 -1.693453
v 1.101855 -0.104778 -1.725406
v 1.080505 -0.494958 -1.693453
v 1.017274 -0.870144 -1.598822
v 0.914594 -1.215918 -1.445150
v 0.776410 -1.518991 -1.238342
v 0.608031 -1.767717 -0.986346
v 0.415930 -1.952537 -0.698846
v 0.207487 -2.066349 -0.386889
v 0.266614 1.856793 -0.338366
v 0.531911 1.742981 -0.603663
v 0.776410 1.558161 -0.848161
v 0.990715 1.309436 -1.062466
v 1.166590 1.006363 -1.238342
v 1.297278 0.660589 -1.369029
v 1.377754 0.285403 -1.449506
v 1.404928 -0.104778 -1.476680
v 1.377754 -0.494958 -1.449506
v 1.297278 -0.870144 -1.369029
v 1.166590 -1.215918 -1.238342
v 0.990715 -1.518991 -1.062466
v 0.776410 -1.767717 -0.848161
v 0.531911 -1.952537 -0.603662
v 0.266614 -2.066349 -0.338365
v 0.315138 1.856793 -0.279239
v 0.627094 1.742981 -0.487681
v 0.914594 1.558161 -0.679783
v 1.166590 1.309436 -0.848161
v 1.373398 1.006363 -0.986346
v 1.527070 0.660589 -1.089026
v 1.621701 0.285403 -1.152256
v 1.653654 -0.104778 -1.173607
v 1.621701 -0.494958 -1.152256
v 1.527070 -0.870144 -1.089026
v 1.373398 -1.215918 -0.986346
v 1.166590 -1.518991 -0.848161
v 0.914594 -1.767717 -0.679783
v 0.627094 -1.952537 -0.487681
v 0.315138 -2.066349 -0.279239
v 0.351195 1.856793 -0.211782
v 0.697822 1.742981 -0.355359
v 1.017275 1.558161 -0.487681
v 1.297278 1.309436 -0.603662
v 1.527070 1.006363 -0.698845
v 1.697821 0.660589 -0.769573
v 1.802969 0.285403 -0.813126
v 1.838474 -0.104778 -0.827833
v 1.802969 -0.494958 -0.813126
v 1.697821 -0.870144 -0.769573
v 1.527070 -1.215918 -0.698845
v 1.297278 -1.518991 -0.603662
v 1.017275 -1.767717 -0.487681
v 0.697821 -1.952537 -0.355359
v 0.351194 -2.066349 -0.211782
v 0.373398 1.856793 -0.138587
v 0.741375 1.742981 -0.211782
v 1.080505 1.558161 -0.279239
v 1.377755 1.309436 -0.338365
v 1.621701 1.006363 -0.386889
v 1.802969 0.660589 -0.422946
v 1.914594 0.285403 -0.445149
v 1.952285 -0.104778 -0.452647
v 1.914594 -0.494958 -0.445149
v 1.802969 -0.870144 -0.422946
v 1.621701 -1.215918 -0.386889
v 1.377755 -1.518991 -0.338365
v 1.080505 -1.767717 -0.279239
v 0.741375 -1.952537 -0.211782
v 0.373398 -2.066349 -0.138586
v 0.380896 1.856793 -0.062466
v 0.756082 1.742981 -0.062466
v 1.101855 1.558161 -0.062466
v 1.404928 1.309436 -0.062466
v 1.653654 1.006363 -0.062466
v 1.838474 0.660589 -0.062466
v 1.952285 0.285403 -0.062466
v 1.990715 -0.104778 -0.062466
v 1.952285 -0.494958 -0.062466
v 1.838474 -0.870144 -0.062466
v 1.653654 -1.215918 -0.062466
v 1.404928 -1.518991 -0.062466
v 1.101855 -1.767717 -0.062466
v 0.756081 -1.952537 -0.062466
v 0.380895 -2.066349 -0.062466
v 0.373398 1.856793 0.013655
v 0.741375 1.742981 0.086850
v 1.080505 1.558161 0.154307
v 1.377754 1.309436 0.213433
v 1.621701 1.006363 0.261957
v 1.802969 0.660589 0.298014
v 1.914594 0.285403 0.320218
v 1.952285 -0.104778 0.327715
v 1.914594 -0.494958 0.320218
v 1.802969 -0.870144 0.298014
v 1.621701 -1.215918 0.261957
v 1.377754 -1.518991 0.213433
v 1.080505 -1.767717 0.154307
v 0.741375 -1.952537 0.086850
v 0.373398 -2.066349 0.013654
v 0.351195 1.856793 0.086850
v 0.697822 1.742981 0.230427
v 1.017275 1.558161 0.362749
v 1.297278 1.309436 0.478730
v 1.527070 1.006363 0.573913
v 1.697821 0.660589 0.644641
v 1.802969 0.285403 0.688195
v 1.838474 -0.104778 0.702901
v 1.802969 -0.494958 0.688195
v 1.697821 -0.870144 0.644641
v 1.527070 -1.215918 0.573913
v 1.297278 -1.518991 0.478730
v 1.017274 -1.767717 0.362749
v 0.697821 -1.952537 0.230427
v 0.351194 -2.066349 0.086850
v 0.315138 1.856793 0.154307
v 0.627094 1.742981 0.362749
v 0.914594 1.558161 0.554851
v 1.166590 1.309436 0.723229
v 1.373398 1.006363 0.861414
v 1.527070 0.660589 0.964094
v 1.621700 0.285403 1.027324
v 1.653654 -0.104778 1.048675
v 1.621700 -0.494958 1.027324
v 1.527070 -0.870144 0.964094
v 1.373398 -1.215918 0.861414
v 1.166590 -1.518991 0.723229
v 0.914594 -1.767717 0.554851
v 0.627094 -1.952537 0.362749
v 0.315138 -2.066349 0.154307
v 0.266614 1.856793 0.213434
v 0.531911 1.742981 0.478730
v 0.776410 1.558161 0.723229
v 0.990714 1.309436 0.937534
v 1.166590 1.006363 1.113410
v 1.297278 0.660589 1.244097
v 1.377754 0.285403 1.324574
v 1.404928 -0.104778 1.351748
v 1.377754 -0.494958 1.324574
v 1.297278 -0.870144 1.244097
v 1.166590 -1.215918 1.113410
v 0.990714 -1.518991 0.937534
v 0.776409 -1.767717 0.723229
v 0.531910 -1.952537 0.478730
v 0.266614 -2.066349 0.213433
v 0.207487 1.856793 0.261958
v 0.415930 1.742981 0.573914
v 0.608031 1.558161 0.861414
v 0.776409 1.309436 1.113410
v 0.914594 1.006363 1.320217
v 1.017274 0.660589 1.473890
v 1.080504 0.285403 1.568520
v 1.101855 -0.104778 1.600474
v 1.080504 -0.494958 1.568520
v 1.017274 -0.870144 1.473890
v 0.914594 -1.215918 1.320217
v 0.776409 -1.518991 1.113410
v 0.608031 -1.767717 0.861414
v 0.415929 -1.952537 0.573913
v 0.207487 -2.066349 0.261957
v 0.140030 1.856793 0.298014
v 0.283608 1.742981 0.644641
v 0.415929 1.558161 0.964094
v 0.531910 1.309436 1.244097
v 0.627093 1.006363 1.473889
v 0.697821 0.660589 1.644641
v 0.741375 0.285403 1.749789
v 0.756081 -0.104778 1.785293
v 0.741375 -0.494958 1.749789
v 0.697821 -0.870144 1.644641
v 0.627093 -1.215918 1.473889
v 0.531910 -1.518991 1.244097
v 0.415929 -1.767717 0.964094
v 0.283608 -1.952537 0.644641
v 0.140030 -2.066349 0.298014
v 0.066835 1.856793 0.320218
v 0.140030 1.742981 0.688195
v 0.207487 1.558161 1.027324
v 0.266614 1.309436 1.324574
v 0.315137 1.006363 1.568520
v 0.351194 0.660589 1.749789
v 0.373398 0.285403 1.861413
v 0.380895 -0.104778 1.899105
v 0.373398 -0.494958 1.861413
v 0.351194 -0.870144 1.749789
v 0.315137 -1.215918 1.568520
v 0.266614 -1.518991 1.324574
v 0.207487 -1.767717 1.027324
v 0.140030 -1.952537 0.688195
v 0.066835 -2.066349 0.320217
v -0.009286 1.856793 0.327715
v -0.009286 1.742981 0.702901
v -0.009286 1.558161 1.048675
v -0.009286 1.309436 1.351748
v -0.009286 1.006363 1.600473
v -0.009286 0.660589 1.785293
v -0.009286 0.285403 1.899104
v -0.009286 -0.104778 1.937534
v -0.009286 -0.494958 1.899104
v -0.009286 -0.870144 1.785293
v -0.009286 -1.215918 1.600473
v -0.009286 -1.518991 1.351748
v -0.009286 -1.767717 1.048674
v -0.009286 -1.952537 0.702901
v -0.009286 -2.066349 0.327715
v -0.085406 1.856793 0.320218
v -0.158601 1.742981 0.688195
v -0.226058 1.558161 1.027324
v -0.285185 1.309436 1.324574
v -0.333709 1.006363 1.568520
v -0.369765 0.660589 1.749789
v -0.391969 0.285403 1.861413
v -0.399467 -0.104778 1.899105
v -0.391969 -0.494958 1.861413
v -0.369765 -0.870144 1.749789
v -0.333709 -1.215918 1.568520
v -0.285185 -1.518991 1.324574
v -0.226058 -1.767717 1.027324
v -0.158601 -1.952537 0.688194
v -0.085406 -2.066349 0.320217
v -0.009286 1.895222 -0.062465
v -0.158602 1.856793 0.298014
v -0.302179 1.742981 0.644641
v -0.434501 1.558161 0.964094
v -0.550482 1.309436 1.244097
v -0.645665 1.006363 1.473889
v -0.716392 0.660589 1.644641
v -0.759946 0.285403 1.749788
v -0.774653 -0.104778 1.785293
v -0.759946 -0.494958 1.749788
v -0.716392 -0.870144 1.644641
v -0.645665 -1.215918 1.473889
v -0.550482 -1.518991 1.244097
v -0.434501 -1.767717 0.964094
v -0.302179 -1.952537 0.644641
v -0.158601 -2.066349 0.298014
v -0.226059 1.856793 0.261958
v -0.434501 1.742981 0.573913
v -0.626602 1.558161 0.861414
v -0.794981 1.309436 1.113410
v -0.933165 1.006363 1.320217
v -1.035846 0.660589 1.473889
v -1.099076 0.285403 1.568520
v -1.120426 -0.104778 1.600473
v -1.099076 -0.494958 1.568520
v -1.035846 -0.870144 1.473889
v -0.933165 -1.215918 1.320217
v -0.794981 -1.518991 1.113410
v -0.626602 -1.767717 0.861413
v -0.434501 -1.952537 0.573913
v -0.226058 -2.066349 0.261957
v -0.285185 1.856793 0.213434
v -0.550482 1.742981 0.478730
v -0.794981 1.558161 0.723229
v -1.009286 1.309436 0.937534
v -1.185161 1.006363 1.113409
v -1.315848 0.660589 1.244097
v -1.396325 0.285403 1.324573
v -1.423499 -0.104778 1.351747
v -1.396325 -0.494958 1.324573
v -1.315848 -0.870144 1.244097
v -1.185161 -1.215918 1.113409
v -1.009286 -1.518991 0.937534
v -0.794981 -1.767717 0.723229
v -0.550482 -1.952537 0.478730
v -0.285185 -2.066349 0.213433
v -0.333709 1.856793 0.154307
v -0.645665 1.742981 0.362749
v -0.933165 1.558161 0.554851
v -1.185161 1.309436 0.723229
v -1.391969 1.006363 0.861413
v -1.545641 0.660589 0.964094
v -1.640272 0.285403 1.027323
v -1.672225 -0.104778 1.048674
v -1.640272 -0.494958 1.027323
v -1.545641 -0.870144 0.964094
v -1.391969 -1.215918 0.861413
v -1.185161 -1.518991 0.723229
v -0.933165 -1.767717 0.554850
v -0.645665 -1.952537 0.362749
v -0.333709 -2.066349 0.154307
v -0.369766 1.856793 0.086850
v -0.716392 1.742981 0.230427
v -1.035846 1.558161 0.362749
v -1.315849 1.309436 0.478730
v -1.545641 1.006363 0.573913
v -1.716392 0.660589 0.644641
v -1.821540 0.285403 0.688194
v -1.857045 -0.104778 0.702900
v -1.821540 -0.494958 0.688194
v -1.716392 -0.870144 0.644641
v -1.545641 -1.215918 0.573913
v -1.315849 -1.518991 0.478730
v -1.035845 -1.767717 0.362749
v -0.716392 -1.952537 0.230427
v -0.369765 -2.066349 0.086850
v -0.391969 1.856793 0.013655
v -0.759946 1.742981 0.086850
v -1.099076 1.558161 0.154307
v -1.396325 1.309436 0.213433
v -1.640271 1.006363 0.261957
v -1.821540 0.660589 0.298014
v -1.933164 0.285403 0.320217
v -1.970856 -0.104778 0.327714
v -1.933164 -0.494958 0.320217
v -1.821540 -0.870144 0.298014
v -1.640271 -1.215918 0.261957
v -1.396325 -1.518991 0.213433
v -1.099076 -1.767717 0.154307
v -0.759946 -1.952537 0.086849
v -0.391969 -2.066349 0.013654
v -0.399467 1.856793 -0.062466
v -0.774652 1.742981 -0.062466
v -1.120426 1.558161 -0.062466
v -1.423499 1.309436 -0.062466
v -1.672224 1.006363 -0.062466
v -1.857045 0.660589 -0.062466
v -1.970855 0.285403 -0.062466
v -2.009285 -0.104778 -0.062466
v -1.970855 -0.494958 -0.062466
v -1.857045 -0.870144 -0.062466
v -1.672224 -1.215918 -0.062466
v -1.423499 -1.518991 -0.062466
v -1.120426 -1.767717 -0.062466
v -0.774652 -1.952537 -0.062466
v -0.399466 -2.066349 -0.062466
v -0.391969 1.856793 -0.138587
v -0.759946 1.742981 -0.211782
v -1.099076 1.558161 -0.279239
v -1.396325 1.309436 -0.338366
v -1.640271 1.006363 -0.386890
v -1.821540 0.660589 -0.422946
v -1.933164 0.285403 -0.445150
v -1.970856 -0.104778 -0.452647
v -1.933164 -0.494958 -0.445150
v -1.821540 -0.870144 -0.422946
v -1.640271 -1.215918 -0.386890
v -1.396325 -1.518991 -0.338366
v -1.099076 -1.767717 -0.279239
v -0.759946 -1.952537 -0.211782
v -0.391969 -2.066349 -0.138586
v -0.369766 1.856793 -0.211782
v -0.716392 1.742981 -0.355359
v -1.035845 1.558161 -0.487681
v -1.315848 1.309436 -0.603662
v -1.545640 1.006363 -0.698845
v -1.716392 0.660589 -0.769573
v -1.821539 0.285403 -0.813127
v -1.857044 -0.104778 -0.827833
v -1.821539 -0.494958 -0.813127
v -1.716392 -0.870144 -0.769573
v -1.545640 -1.215918 -0.698845
v -1.315848 -1.518991 -0.603662
v -1.035845 -1.767717 -0.487681
v -0.716392 -1.952537 -0.355359
v -0.369765 -2.066349 -0.211782
v -0.333709 1.856793 -0.279239
v -0.645665 1.742981 -0.487681
v -0.933165 1.558161 -0.679783
v -1.185161 1.309436 -0.848161
v -1.391968 1.006363 -0.986345
v -1.545641 0.660589 -1.089026
v -1.640271 0.285403 -1.152256
v -1.672224 -0.104778 -1.173607
v -1.640271 -0.494958 -1.152256
v -1.545641 -0.870144 -1.089026
v -1.391968 -1.215918 -0.986345
v -1.185161 -1.518991 -0.848161
v -0.933165 -1.767717 -0.679782
v -0.645665 -1.952537 -0.487681
v -0.333709 -2.066349 -0.279239
v -0.285185 1.856793 -0.338366
v -0.550482 1.742981 -0.603662
v -0.794980 1.558161 -0.848161
v -1.009285 1.309436 -1.062466
v -1.185160 1.006363 -1.238341
v -1.315848 0.660589 -1.369029
v -1.396324 0.285403 -1.449505
v -1.423498 -0.104778 -1.476679
v -1.396324 -0.494958 -1.449505
v -1.315848 -0.870144 -1.369029
v -1.185160 -1.215918 -1.238341
v -1.009285 -1.518991 -1.062466
v -0.794980 -1.767717 -0.848161
v -0.550481 -1.952537 -0.603662
v -0.285185 -2.066349 -0.338365
v -0.226059 1.856793 -0.386890
v -0.434501 1.742981 -0.698845
v -0.626602 1.558161 -0.986345
v -0.794980 1.309436 -1.238342
v -0.933164 1.006363 -1.445149
v -1.035845 0.660589 -1.598821
v -1.099075 0.285403 -1.693452
v -1.120425 -0.104778 -1.725405
v -1.099075 -0.494958 -1.693452
v -1.035845 -0.870144 -1.598821
v -0.933164 -1.215918 -1.445149
v -0.794980 -1.518991 -1.238342
v -0.626602 -1.767717 -0.986345
v -0.434500 -1.952537 -0.698845
v -0.226058 -2.066349 -0.386889
v -0.158601 1.856793 -0.422946
v -0.302179 1.742981 -0.769573
v -0.434500 1.558161 -1.089026
v -0.550481 1.309436 -1.369029
v -0.645664 1.006363 -1.598821
v -0.716392 0.660589 -1.769572
v -0.759945 0.285403 -1.874720
v -0.774652 -0.104778 -1.910224
v -0.759945 -0.494958 -1.874720
v -0.716392 -0.870144 -1.769572
v -0.645664 -1.215918 -1.598821
v -0.550481 -1.518991 -1.369029
v -0.434500 -1.767717 -1.089025
v -0.302179 -1.952537 -0.769572
v -0.158601 -2.066349 -0.422946
v -0.085406 1.856793 -0.445150
v -0.158601 1.742981 -0.813126
v -0.226058 1.558161 -1.152256
v -0.285185 1.309436 -1.449506
v -0.333708 1.006363 -1.693451
v -0.369765 0.660589 -1.874721
v -0.391968 0.285403 -1.986344
v -0.399466 -0.104778 -2.024036
v -0.391968 -0.494958 -1.986344
v -0.369765 -0.870144 -1.874721
v -0.333708 -1.215918 -1.693451
v -0.285185 -1.518991 -1.449506
v -0.226058 -1.767717 -1.152256
v -0.158601 -1.952537 -0.813126
v -0.085406 -2.066349 -0.445149
v -0.009286 1.856793 -0.452647
v -0.009286 1.742981 -0.827833
v -0.009285 1.558161 -1.173606
v -0.009285 1.309436 -1.476679
v -0.009285 1.006363 -1.725404
v -0.009286 0.660589 -1.910225
v -0.009285 0.285403 -2.024035
v -0.009285 -0.104778 -2.062465
v -0.009285 -0.494958 -2.024035
v -0.009286 -0.870144 -1.910225
v -0.009285 -1.215918 -1.725404
v -0.009285 -1.518991 -1.476679
v -0.009285 -1.767717 -1.173606
v -0.009286 -1.952537 -0.827832
v -0.009286 -2.066349 -0.452646
vn 0.0000 0.7040 -0.7101
vn 0.0000 0.8286 -0.5598
vn 0.1092 0.8286 -0.5490
vn 0.1385 0.7040 -0.6965
vn 0.0000 -0.7040 -0.7101
vn 0.0000 -0.5528 -0.8333
vn 0.1626 -0.5528 -0.8173
vn 0.1385 -0.7040 -0.6965
vn 0.0000 0.5528 -0.8333
vn 0.1626 0.5528 -0.8173
vn 0.0000 -0.8286 -0.5598
vn 0.1092 -0.8286 -0.5490
vn 0.0000 0.3805 -0.9247
vn 0.1804 0.3805 -0.9070
vn 0.0000 -0.9217 -0.3879
vn 0.0757 -0.9217 -0.3804
vn 0.0000 0.1939 -0.9810
vn 0.1914 0.1939 -0.9622
vn 0.0000 -0.9796 -0.2010
vn 0.0392 -0.9796 -0.1971
vn 0.0000 0.0000 -1.0000
vn 0.1951 0.0000 -0.9808
vn 0.0000 0.9796 -0.2010
vn 0.0000 1.0000 0.0000
vn 0.0392 0.9796 -0.1971
vn 0.0000 -1.0000 0.0000
vn 0.0000 -0.1939 -0.9810
vn 0.1914 -0.1939 -0.9622
vn 0.0000 0.9217 -0.3879
vn 0.0757 0.9217 -0.3804
vn 0.0000 -0.3805 -0.9247
vn 0.1804 -0.3805 -0.9070
vn 0.3754 -0.1939 -0.9063
vn 0.3539 -0.3805 -0.8544
vn 0.1484 0.9217 -0.3583
vn 0.2142 0.8286 -0.5171
vn 0.3189 -0.5528 -0.7699
vn 0.2717 0.7040 -0.6561
vn 0.2717 -0.7040 -0.6561
vn 0.3189 0.5528 -0.7699
vn 0.2142 -0.8286 -0.5171
vn 0.3539 0.3805 -0.8544
vn 0.1484 -0.9217 -0.3583
vn 0.3754 0.1939 -0.9063
vn 0.0769 -0.9796 -0.1856
vn 0.3827 0.0000 -0.9239
vn 0.0769 0.9796 -0.1856
vn 0.3110 -0.8286 -0.4654
vn 0.2155 -0.9217 -0.3225
vn 0.5137 0.3805 -0.7689
vn 0.5450 0.1939 -0.8157
vn 0.1116 -0.9796 -0.1671
vn 0.5556 0.0000 -0.8314
vn 0.1116 0.9796 -0.1671
vn 0.5450 -0.1939 -0.8157
vn 0.2155 0.9217 -0.3225
vn 0.5137 -0.3805 -0.7689
vn 0.3110 0.8286 -0.4654
vn 0.4630 -0.5528 -0.6929
vn 0.3945 0.7040 -0.5904
vn 0.3945 -0.7040 -0.5904
vn 0.4630 0.5528 -0.6929
vn 0.6539 -0.3805 -0.6539
vn 0.5893 -0.5528 -0.5893
vn 0.3958 0.8286 -0.3958
vn 0.5021 0.7040 -0.5021
vn 0.5021 -0.7040 -0.5021
vn 0.5893 0.5528 -0.5893
vn 0.3958 -0.8286 -0.3958
vn 0.6539 0.3805 -0.6539
vn 0.2743 -0.9217 -0.2743
vn 0.6937 0.1939 -0.6937
vn 0.1421 -0.9796 -0.1421
vn 0.7071 0.0000 -0.7071
vn 0.1421 0.9796 -0.1421
vn 0.6937 -0.1939 -0.6937
vn 0.2743 0.9217 -0.2743
vn 0.3225 -0.9217 -0.2155
vn 0.1671 -0.9796 -0.1116
vn 0.8157 0.1939 -0.5450
vn 0.8314 0.0000 -0.5556
vn 0.1671 0.9796 -0.1116
vn 0.8157 -0.1939 -0.5450
vn 0.3225 0.9217 -0.2155
vn 0.7689 -0.3805 -0.5137
vn 0.4654 0.8286 -0.3110
vn 0.6929 -0.5528 -0.4630
vn 0.5904 0.7040 -0.3945
vn 0.5904 -0.7040 -0.3945
vn 0.6929 0.5528 -0.4630
vn 0.4654 -0.8286 -0.3110
vn 0.7689 0.3805 -0.5137
vn 0.5171 0.8286 -0.2142
vn 0.6561 0.7040 -0.2717
vn 0.7699 -0.5528 -0.3189
vn 0.6561 -0.7040 -0.2717
vn 0.7699 0.5528 -0.3189
vn 0.5171 -0.8286 -0.2142
vn 0.8544 0.3805 -0.3539
vn 0.3583 -0.9217 -0.1484
vn 0.9063 0.1939 -0.3754
vn 0.1856 -0.9796 -0.0769
vn 0.9239 0.0000 -0.3827
vn 0.1856 0.9796 -0.0769
vn 0.9063 -0.1939 -0.3754
vn 0.3583 0.9217 -0.1484
vn 0.8544 -0.3805 -0.3539
vn 0.9622 0.1939 -0.1914
vn 0.9808 0.0000 -0.1951
vn 0.1971 0.9796 -0.0392
vn 0.1971 -0.9796 -0.0392
vn 0.9622 -0.1939 -0.1914
vn 0.3804 0.9217 -0.0757
vn 0.9070 -0.3805 -0.1804
vn 0.5490 0.8286 -0.1092
vn 0.8173 -0.5528 -0.1626
vn 0.6965 0.7040 -0.1385
vn 0.6965 -0.7040 -0.1385
vn 0.8173 0.5528 -0.1626
vn 0.5490 -0.8286 -0.1092
vn 0.9070 0.3805 -0.1804
vn 0.3804 -0.9217 -0.0757
vn 0.8333 -0.5528 0.0000
vn 0.7101 -0.7040 0.0000
vn 0.7101 0.7040 0.0000
vn 0.8333 0.5528 0.0000
vn 0.5598 -0.8286 0.0000
vn 0.9247 0.3805 0.0000
vn 0.3879 -0.9217 0.0000
vn 0.9810 0.1939 0.0000
vn 0.2010 -0.9796 0.0000
vn 1.0000 0.0000 0.0000
vn 0.2010 0.9796 0.0000
vn 0.9810 -0.1939 0.0000
vn 0.3879 0.9217 0.0000
vn 0.9247 -0.3805 0.0000
vn 0.5598 0.8286 0.0000
vn 0.1971 0.9796 0.0392
vn 0.1971 -0.9796 0.0392
vn 0.9808 0.0000 0.1951
vn 0.9622 -0.1939 0.1914
vn 0.3804 0.9217 0.0757
vn 0.9070 -0.3805 0.1804
vn 0.5490 0.8286 0.1092
vn 0.8173 -0.5528 0.1626
vn 0.6965 0.7040 0.1385
vn 0.6965 -0.7040 0.1385
vn 0.8173 0.5528 0.1626
vn 0.5490 -0.8286 0.1092
vn 0.9070 0.3805 0.1804
vn 0.3804 -0.9217 0.0757
vn 0.9622 0.1939 0.1914
vn 0.6561 0.7040 0.2717
vn 0.7699 0.5528 0.3189
vn 0.6561 -0.7040 0.2717
vn 0.5171 -0.8286 0.2142
vn 0.8544 0.3805 0.3539
vn 0.3583 -0.9217 0.1484
vn 0.9063 0.1939 0.3754
vn 0.1856 -0.9796 0.0769
vn 0.9239 0.0000 0.3827
vn 0.1856 0.9796 0.0769
vn 0.9063 -0.1939 0.3754
vn 0.3583 0.9217 0.1484
vn 0.8544 -0.3805 0.3539
vn 0.5171 0.8286 0.2142
vn 0.7699 -0.5528 0.3189
vn 0.8314 0.0000 0.5556
vn 0.8157 -0.1939 0.5450
vn 0.1671 0.9796 0.1116
vn 0.3225 0.9217 0.2155
vn 0.7689 -0.3805 0.5137
vn 0.4654 0.8286 0.3110
vn 0.6929 -0.5528 0.4630
vn 0.5904 0.7040 0.3945
vn 0.5904 -0.7040 0.3945
vn 0.6929 0.5528 0.4630
vn 0.4654 -0.8286 0.3110
vn 0.7689 0.3805 0.5137
vn 0.3225 -0.9217 0.2155
vn 0.8157 0.1939 0.5450
vn 0.1671 -0.9796 0.1116
vn 0.5021 -0.7040 0.5021
vn 0.3958 -0.8286 0.3958
vn 0.5893 0.5528 0.5893
vn 0.6539 0.3805 0.6539
vn 0.2743 -0.9217 0.2743
vn 0.6937 0.1939 0.6937
vn 0.1421 -0.9796 0.1421
vn 0.7071 0.0000 0.7071
vn 0.1421 0.9796 0.1421
vn 0.6937 -0.1939 0.6937
vn 0.2743 0.9217 0.2743
vn 0.6539 -0.3805 0.6539
vn 0.3958 0.8286 0.3958
vn 0.5893 -0.5528 0.5893
vn 0.5021 0.7040 0.5021
vn 0.5450 -0.1939 0.8157
vn 0.5137 -0.3805 0.7689
vn 0.2155 0.9217 0.3225
vn 0.3110 0.8286 0.4654
vn 0.4630 -0.5528 0.6929
vn 0.3945 0.7040 0.5904
vn 0.3945 -0.7040 0.5904
vn 0.4630 0.5528 0.6929
vn 0.3110 -0.8286 0.4654
vn 0.5137 0.3805 0.7689
vn 0.2155 -0.9217 0.3225
vn 0.5450 0.1939 0.8157
vn 0.1116 -0.9796 0.1671
vn 0.5556 0.0000 0.8314
vn 0.1116 0.9796 0.1671
vn 0.2142 -0.8286 0.5171
vn 0.1484 -0.9217 0.3583
vn 0.3539 0.3805 0.8544
vn 0.3754 0.1939 0.9063
vn 0.0769 -0.9796 0.1856
vn 0.3827 0.0000 0.9239
vn 0.0769 0.9796 0.1856
vn 0.3754 -0.1939 0.9063
vn 0.1484 0.9217 0.3583
vn 0.3539 -0.3805 0.8544
vn 0.2142 0.8286 0.5171
vn 0.3189 -0.5528 0.7699
vn 0.2717 0.7040 0.6561
vn 0.2717 -0.7040 0.6561
vn 0.3189 0.5528 0.7699
vn 0.0757 0.9217 0.3804
vn 0.1092 0.8286 0.5490
vn 0.1804 -0.3805 0.9070
vn 0.1626 -0.5528 0.8173
vn 0.1385 0.7040 0.6965
vn 0.1385 -0.7040 0.6965
vn 0.1626 0.5528 0.8173
vn 0.1092 -0.8286 0.5490
vn 0.1804 0.3805 0.9070
vn 0.0757 -0.9217 0.3804
vn 0.1914 0.1939 0.9622
vn 0.0392 -0.9796 0.1971
vn 0.1951 0.0000 0.9808
vn 0.0392 0.9796 0.1971
vn 0.1914 -0.1939 0.9622
vn 0.0000 0.3805 0.9247
vn 0.0000 0.1939 0.9810
vn 0.0000 -0.9217 0.3879
vn 0.0000 -0.9796 0.2010
vn 0.0000 0.0000 1.0000
vn 0.0000 0.9796 0.2010
vn 0.0000 -0.1939 0.9810
vn 0.0000 0.9217 0.3879
vn 0.0000 -0.3805 0.9247
vn 0.0000 0.8286 0.5598
vn 0.0000 -0.5528 0.8333
vn 0.0000 0.7040 0.7101
vn 0.0000 -0.7040 0.7101
vn 0.0000 0.5528 0.8333
vn 0.0000 -0.8286 0.5598
vn -0.1804 -0.3805 0.9070
vn -0.1626 -0.5528 0.8173
vn -0.1092 0.8286 0.5490
vn -0.1385 0.7040 0.6965
vn -0.1385 -0.7040 0.6965
vn -0.1626 0.5528 0.8173
vn -0.1092 -0.8286 0.5490
vn -0.1804 0.3805 0.9070
vn -0.0757 -0.9217 0.3804
vn -0.1914 0.1939 0.9622
vn -0.0392 -0.9796 0.1971
vn -0.1951 0.0000 0.9808
vn -0.0392 0.9796 0.1971
vn -0.1914 -0.1939 0.9622
vn -0.0757 0.9217 0.3804
vn -0.1484 -0.9217 0.3583
vn -0.0769 -0.9796 0.1856
vn -0.3754 0.1939 0.9063
vn -0.3827 0.0000 0.9239
vn -0.0769 0.9796 0.1856
vn -0.3754 -0.1939 0.9063
vn -0.1484 0.9217 0.3583
vn -0.3539 -0.3805 0.8544
vn -0.2142 0.8286 0.5171
vn -0.3189 -0.5528 0.7699
vn -0.2717 0.7040 0.6561
vn -0.2717 -0.7040 0.6561
vn -0.3189 0.5528 0.7699
vn -0.2142 -0.8286 0.5171
vn -0.3539 0.3805 0.8544
vn -0.3110 0.8286 0.4654
vn -0.3945 0.7040 0.5904
vn -0.4630 -0.5528 0.6929
vn -0.3945 -0.7040 0.5904
vn -0.4630 0.5528 0.6929
vn -0.3110 -0.8286 0.4654
vn -0.5137 0.3805 0.7689
vn -0.2155 -0.9217 0.3225
vn -0.5450 0.1939 0.8157
vn -0.1116 -0.9796 0.1671
vn -0.5556 0.0000 0.8314
vn -0.1116 0.9796 0.1671
vn -0.5450 -0.1939 0.8157
vn -0.2155 0.9217 0.3225
vn -0.5137 -0.3805 0.7689
vn -0.6937 0.1939 0.6937
vn -0.7071 0.0000 0.7071
vn -0.1421 0.9796 0.1421
vn -0.1421 -0.9796 0.1421
vn -0.6937 -0.1939 0.6937
vn -0.2743 0.9217 0.2743
vn -0.6539 -0.3805 0.6539
vn -0.3958 0.8286 0.3958
vn -0.5893 -0.5528 0.5893
vn -0.5021 0.7040 0.5021
vn -0.5021 -0.7040 0.5021
vn -0.5893 0.5528 0.5893
vn -0.3958 -0.8286 0.3958
vn -0.6539 0.3805 0.6539
vn -0.2743 -0.9217 0.2743
vn -0.6929 -0.5528 0.4630
vn -0.5904 -0.7040 0.3945
vn -0.5904 0.7040 0.3945
vn -0.6929 0.5528 0.4630
vn -0.4654 -0.8286 0.3110
vn -0.7689 0.3805 0.5137
vn -0.3225 -0.9217 0.2155
vn -0.8157 0.1939 0.5450
vn -0.1671 -0.9796 0.1116
vn -0.8314 0.0000 0.5556
vn -0.1671 0.9796 0.1116
vn -0.8157 -0.1939 0.5450
vn -0.3225 0.9217 0.2155
vn -0.7689 -0.3805 0.5137
vn -0.4654 0.8286 0.3110
vn -0.1856 -0.9796 0.0769
vn -0.9239 0.0000 0.3827
vn -0.9063 -0.1939 0.3754
vn -0.1856 0.9796 0.0769
vn -0.3583 0.9217 0.1484
vn -0.8544 -0.3805 0.3539
vn -0.5171 0.8286 0.2142
vn -0.7699 -0.5528 0.3189
vn -0.6561 0.7040 0.2717
vn -0.6561 -0.7040 0.2717
vn -0.7699 0.5528 0.3189
vn -0.5171 -0.8286 0.2142
vn -0.8544 0.3805 0.3539
vn -0.3583 -0.9217 0.1484
vn -0.9063 0.1939 0.3754
vn -0.6965 -0.7040 0.1385
vn -0.5490 -0.8286 0.1092
vn -0.8173 0.5528 0.1626
vn -0.9070 0.3805 0.1804
vn -0.3804 -0.9217 0.0757
vn -0.9622 0.1939 0.1914
vn -0.1971 -0.9796 0.0392
vn -0.9808 0.0000 0.1951
vn -0.1971 0.9796 0.0392
vn -0.9622 -0.1939 0.1914
vn -0.3804 0.9217 0.0757
vn -0.9070 -0.3805 0.1804
vn -0.5490 0.8286 0.1092
vn -0.8173 -0.5528 0.1626
vn -0.6965 0.7040 0.1385
vn -0.2010 0.9796 0.0000
vn -0.3879 0.9217 0.0000
vn -0.9810 -0.1939 0.0000
vn -0.9247 -0.3805 0.0000
vn -0.5598 0.8286 0.0000
vn -0.8333 -0.5528 0.0000
vn -0.7101 0.7040 0.0000
vn -0.7101 -0.7040 0.0000
vn -0.8333 0.5528 0.0000
vn -0.5598 -0.8286 0.0000
vn -0.9247 0.3805 0.0000
vn -0.3879 -0.9217 0.0000
vn -0.9810 0.1939 0.0000
vn -0.2010 -0.9796 0.0000
vn -1.0000 0.0000 0.0000
vn -0.8173 0.5528 -0.1626
vn -0.9070 0.3805 -0.1804
vn -0.5490 -0.8286 -0.1092
vn -0.3804 -0.9217 -0.0757
vn -0.9622 0.1939 -0.1914
vn -0.1971 -0.9796 -0.0392
vn -0.9808 0.0000 -0.1951
vn -0.1971 0.9796 -0.0392
vn -0.9622 -0.1939 -0.1914
vn -0.3804 0.9217 -0.0757
vn -0.9070 -0.3805 -0.1804
vn -0.5490 0.8286 -0.1092
vn -0.8173 -0.5528 -0.1626
vn -0.6965 0.7040 -0.1385
vn -0.6965 -0.7040 -0.1385
vn -0.9063 -0.1939 -0.3754
vn -0.8544 -0.3805 -0.3539
vn -0.3583 0.9217 -0.1484
vn -0.5171 0.8286 -0.2142
vn -0.7699 -0.5528 -0.3189
vn -0.6561 0.7040 -0.2717
vn -0.6561 -0.7040 -0.2717
vn -0.7699 0.5528 -0.3189
vn -0.5171 -0.8286 -0.2142
vn -0.8544 0.3805 -0.3539
vn -0.3583 -0.9217 -0.1484
vn -0.9063 0.1939 -0.3754
vn -0.1856 -0.9796 -0.0769
vn -0.9239 0.0000 -0.3827
vn -0.1856 0.9796 -0.0769
vn -0.4654 -0.8286 -0.3110
vn -0.3225 -0.9217 -0.2155
vn -0.7689 0.3805 -0.5137
vn -0.8157 0.1939 -0.5450
vn -0.1671 -0.9796 -0.1116
vn -0.8314 0.0000 -0.5556
vn -0.1671 0.9796 -0.1116
vn -0.8157 -0.1939 -0.5450
vn -0.3225 0.9217 -0.2155
vn -0.7689 -0.3805 -0.5137
vn -0.4654 0.8286 -0.3110
vn -0.6929 -0.5528 -0.4630
vn -0.5904 0.7040 -0.3945
vn -0.5904 -0.7040 -0.3945
vn -0.6929 0.5528 -0.4630
vn -0.2743 0.9217 -0.2743
vn -0.3958 0.8286 -0.3958
vn -0.6539 -0.3805 -0.6539
vn -0.5893 -0.5528 -0.5893
vn -0.5021 0.7040 -0.5021
vn -0.5021 -0.7040 -0.5021
vn -0.5893 0.5528 -0.5893
vn -0.3958 -0.8286 -0.3958
vn -0.6539 0.3805 -0.6539
vn -0.2743 -0.9217 -0.2743
vn -0.6937 0.1939 -0.6937
vn -0.1421 -0.9796 -0.1421
vn -0.7071 0.0000 -0.7071
vn -0.1421 0.9796 -0.1421
vn -0.6937 -0.1939 -0.6937
vn -0.5137 0.3805 -0.7689
vn -0.5450 0.1939 -0.8157
vn -0.2155 -0.9217 -0.3225
vn -0.1116 -0.9796 -0.1671
vn -0.5556 0.0000 -0.8314
vn -0.1116 0.9796 -0.1671
vn -0.5450 -0.1939 -0.8157
vn -0.2155 0.9217 -0.3225
vn -0.5137 -0.3805 -0.7689
vn -0.3110 0.8286 -0.4654
vn -0.4630 -0.5528 -0.6929
vn -0.3945 0.7040 -0.5904
vn -0.3945 -0.7040 -0.5904
vn -0.4630 0.5528 -0.6929
vn -0.3110 -0.8286 -0.4654
vn -0.3539 -0.3805 -0.8544
vn -0.3189 -0.5528 -0.7699
vn -0.2142 0.8286 -0.5171
vn -0.2717 0.7040 -0.6561
vn -0.2717 -0.7040 -0.6561
vn -0.3189 0.5528 -0.7699
vn -0.2142 -0.8286 -0.5171
vn -0.3539 0.3805 -0.8544
vn -0.1484 -0.9217 -0.3583
vn -0.3754 0.1939 -0.9063
vn -0.0769 -0.9796 -0.1856
vn -0.3827 0.0000 -0.9239
vn -0.0769 0.9796 -0.1856
vn -0.3754 -0.1939 -0.9063
vn -0.1484 0.9217 -0.3583
vn -0.0757 -0.9217 -0.3804
vn -0.0392 -0.9796 -0.1971
vn -0.1914 0.1939 -0.9622
vn -0.1951 0.0000 -0.9808
vn -0.0392 0.9796 -0.1971
vn -0.1914 -0.1939 -0.9622
vn -0.0757 0.9217 -0.3804
vn -0.1804 -0.3805 -0.9070
vn -0.1092 0.8286 -0.5490
vn -0.1626 -0.5528 -0.8173
vn -0.1385 0.7040 -0.6965
vn -0.1385 -0.7040 -0.6965
vn -0.1626 0.5528 -0.8173
vn -0.1092 -0.8286 -0.5490
vn -0.1804 0.3805 -0.9070
usemtl Sun.001
s 1
f 471//1 470//2 4//3 5//4
f 479//5 478//6 12//7 13//8
f 472//9 471//1 5//4 6//10
f 480//11 479//5 13//8 14//12
f 473//13 472//9 6//10 7//14
f 481//15 480//11 14//12 15//16
f 474//17 473//13 7//14 8//18
f 482//19 481//15 15//16 16//20
f 475//21 474//17 8//18 9//22
f 468//23 257//24 2//25
f 1//26 482//19 16//20
f 476//27 475//21 9//22 10//28
f 469//29 468//23 2//25 3//30
f 477//31 476//27 10//28 11//32
f 470//2 469//29 3//30 4//3
f 478//6 477//31 11//32 12//7
f 11//32 10//28 25//33 26//34
f 4//3 3//30 18//35 19//36
f 12//7 11//32 26//34 27//37
f 5//4 4//3 19//36 20//38
f 13//8 12//7 27//37 28//39
f 6//10 5//4 20//38 21//40
f 14//12 13//8 28//39 29//41
f 7//14 6//10 21//40 22//42
f 15//16 14//12 29//41 30//43
f 8//18 7//14 22//42 23//44
f 16//20 15//16 30//43 31//45
f 9//22 8//18 23//44 24//46
f 2//25 257//24 17//47
f 1//26 16//20 31//45
f 10//28 9//22 24//46 25//33
f 3//30 2//25 17//47 18//35
f 30//43 29//41 44//48 45//49
f 23//44 22//42 37//50 38//51
f 31//45 30//43 45//49 46//52
f 24//46 23//44 38//51 39//53
f 17//47 257//24 32//54
f 1//26 31//45 46//52
f 25//33 24//46 39//53 40//55
f 18//35 17//47 32//54 33//56
f 26//34 25//33 40//55 41//57
f 19//36 18//35 33//56 34//58
f 27//37 26//34 41//57 42//59
f 20//38 19//36 34//58 35//60
f 28//39 27//37 42//59 43//61
f 21//40 20//38 35//60 36//62
f 29//41 28//39 43//61 44//48
f 22//42 21//40 36//62 37//50
f 42//59 41//57 56//63 57//64
f 35//60 34//58 49//65 50//66
f 43//61 42//59 57//64 58//67
f 36//62 35//60 50//66 51//68
f 44//48 43//61 58//67 59//69
f 37//50 36//62 51//68 52//70
f 45//49 44//48 59//69 60//71
f 38//51 37//50 52//70 53//72
f 46//52 45//49 60//71 61//73
f 39//53 38//51 53//72 54//74
f 32//54 257//24 47//75
f 1//26 46//52 61//73
f 40//55 39//53 54//74 55//76
f 33//56 32//54 47//75 48//77
f 41//57 40//55 55//76 56//63
f 34//58 33//56 48//77 49//65
f 61//73 60//71 75//78 76//79
f 54//74 53//72 68//80 69//81
f 47//75 257//24 62//82
f 1//26 61//73 76//79
f 55//76 54//74 69//81 70//83
f 48//77 47//75 62//82 63//84
f 56//63 55//76 70//83 71//85
f 49//65 48//77 63//84 64//86
f 57//64 56//63 71//85 72//87
f 50//66 49//65 64//86 65//88
f 58//67 57//64 72//87 73//89
f 51//68 50//66 65//88 66//90
f 59//69 58//67 73//89 74//91
f 52//70 51//68 66//90 67//92
f 60//71 59//69 74//91 75//78
f 53//72 52//70 67//92 68//80
f 65//88 64//86 79//93 80//94
f 73//89 72//87 87//95 88//96
f 66//90 65//88 80//94 81//97
f 74//91 73//89 88//96 89//98
f 67//92 66//90 81//97 82//99
f 75//78 74//91 89//98 90//100
f 68//80 67//92 82//99 83//101
f 76//79 75//78 90//100 91//102
f 69//81 68//80 83//101 84//103
f 62//82 257//24 77//104
f 1//26 76//79 91//102
f 70//83 69//81 84//103 85//105
f 63//84 62//82 77//104 78//106
f 71//85 70//83 85//105 86//107
f 64//86 63//84 78//106 79//93
f 72//87 71//85 86//107 87//95
f 84//103 83//101 98//108 99//109
f 77//104 257//24 92//110
f 1//26 91//102 106//111
f 85//105 84//103 99//109 100//112
f 78//106 77//104 92//110 93//113
f 86//107 85//105 100//112 101//114
f 79//93 78//106 93//113 94//115
f 87//95 86//107 101//114 102//116
f 80//94 79//93 94//115 95//117
f 88//96 87//95 102//116 103//118
f 81//97 80//94 95//117 96//119
f 89//98 88//96 103//118 104//120
f 82//99 81//97 96//119 97//121
f 90//100 89//98 104//120 105//122
f 83//101 82//99 97//121 98//108
f 91//102 90//100 105//122 106//111
f 103//118 102//116 117//123 118//124
f 96//119 95//117 110//125 111//126
f 104//120 103//118 118//124 119//127
f 97//121 96//119 111//126 112//128
f 105//122 104//120 119//127 120//129
f 98//108 97//121 112//128 113//130
f 106//111 105//122 120//129 121//131
f 99//109 98//108 113//130 114//132
f 92//110 257//24 107//133
f 1//26 106//111 121//131
f 100//112 99//109 114//132 115//134
f 93//113 92//110 107//133 108//135
f 101//114 100//112 115//134 116//136
f 94//115 93//113 108//135 109//137
f 102//116 101//114 116//136 117//123
f 95//117 94//115 109//137 110//125
f 107//133 257//24 122//138
f 1//26 121//131 136//139
f 115//134 114//132 129//140 130//141
f 108//135 107//133 122//138 123//142
f 116//136 115//134 130//141 131//143
f 109//137 108//135 123//142 124//144
f 117//123 116//136 131//143 132//145
f 110//125 109//137 124//144 125//146
f 118//124 117//123 132//145 133//147
f 111//126 110//125 125//146 126//148
f 119//127 118//124 133//147 134//149
f 112//128 111//126 126//148 127//150
f 120//129 119//127 134//149 135//151
f 113//130 112//128 127//150 128//152
f 121//131 120//129 135//151 136//139
f 114//132 113//130 128//152 129//140
f 126//148 125//146 140//153 141//154
f 134//149 133//147 148//155 149//156
f 127//150 126//148 141//154 142//157
f 135//151 134//149 149//156 150//158
f 128//152 127//150 142//157 143//159
f 136//139 135//151 150//158 151//160
f 129//140 128//152 143//159 144//161
f 122//138 257//24 137//162
f 1//26 136//139 151//160
f 130//141 129//140 144//161 145//163
f 123//142 122//138 137//162 138//164
f 131//143 130//141 145//163 146//165
f 124//144 123//142 138//164 139//166
f 132//145 131//143 146//165 147//167
f 125//146 124//144 139//166 140//153
f 133//147 132//145 147//167 148//155
f 145//163 144//161 159//168 160//169
f 138//164 137//162 152//170 153//171
f 146//165 145//163 160//169 161//172
f 139//166 138//164 153//171 154//173
f 147//167 146//165 161//172 162//174
f 140//153 139//166 154//173 155//175
f 148//155 147//167 162//174 163//176
f 141//154 140//153 155//175 156//177
f 149//156 148//155 163//176 164//178
f 142//157 141//154 156//177 157//179
f 150//158 149//156 164//178 165//180
f 143//159 142//157 157//179 158//181
f 151//160 150//158 165//180 166//182
f 144//161 143//159 158//181 159//168
f 137//162 257//24 152//170
f 1//26 151//160 166//182
f 164//178 163//176 178//183 179//184
f 157//179 156//177 171//185 172//186
f 165//180 164//178 179//184 180//187
f 158//181 157//179 172//186 173//188
f 166//182 165//180 180//187 181//189
f 159//168 158//181 173//188 174//190
f 152//170 257//24 167//191
f 1//26 166//182 181//189
f 160//169 159//168 174//190 175//192
f 153//171 152//170 167//191 168//193
f 161//172 160//169 175//192 176//194
f 154//173 153//171 168//193 169//195
f 162//174 161//172 176//194 177//196
f 155//175 154//173 169//195 170//197
f 163//176 162//174 177//196 178//183
f 156//177 155//175 170//197 171//185
f 176//194 175//192 190//198 191//199
f 169//195 168//193 183//200 184//201
f 177//196 176//194 191//199 192//202
f 170//197 169//195 184//201 185//203
f 178//183 177//196 192//202 193//204
f 171//185 170//197 185//203 186//205
f 179//184 178//183 193//204 194//206
f 172//186 171//185 186//205 187//207
f 180//187 179//184 194//206 195//208
f 173//188 172//186 187//207 188//209
f 181//189 180//187 195//208 196//210
f 174//190 173//188 188//209 189//211
f 167//191 257//24 182//212
f 1//26 181//189 196//210
f 175//192 174//190 189//211 190//198
f 168//193 167//191 182//212 183//200
f 195//208 194//206 209//213 210//214
f 188//209 187//207 202//215 203//216
f 196//210 195//208 210//214 211//217
f 189//211 188//209 203//216 204//218
f 182//212 257//24 197//219
f 1//26 196//210 211//217
f 190//198 189//211 204//218 205//220
f 183//200 182//212 197//219 198//221
f 191//199 190//198 205//220 206//222
f 184//201 183//200 198//221 199//223
f 192//202 191//199 206//222 207//224
f 185//203 184//201 199//223 200//225
f 193//204 192//202 207//224 208//226
f 186//205 185//203 200//225 201//227
f 194//206 193//204 208//226 209//213
f 187//207 186//205 201//227 202//215
f 199//223 198//221 213//228 214//229
f 207//224 206//222 221//230 222//231
f 200//225 199//223 214//229 215//232
f 208//226 207//224 222//231 223//233
f 201//227 200//225 215//232 216//234
f 209//213 208//226 223//233 224//235
f 202//215 201//227 216//234 217//236
f 210//214 209//213 224//235 225//237
f 203//216 202//215 217//236 218//238
f 211//217 210//214 225//237 226//239
f 204//218 203//216 218//238 219//240
f 197//219 257//24 212//241
f 1//26 211//217 226//239
f 205//220 204//218 219//240 220//242
f 198//221 197//219 212//241 213//228
f 206//222 205//220 220//242 221//230
f 218//238 217//236 232//243 233//244
f 226//239 225//237 240//245 241//246
f 219//240 218//238 233//244 234//247
f 212//241 257//24 227//248
f 1//26 226//239 241//246
f 220//242 219//240 234//247 235//249
f 213//228 212//241 227//248 228//250
f 221//230 220//242 235//249 236//251
f 214//229 213//228 228//250 229//252
f 222//231 221//230 236//251 237//253
f 215//232 214//229 229//252 230//254
f 223//233 222//231 237//253 238//255
f 216//234 215//232 230//254 231//256
f 224//235 223//233 238//255 239//257
f 217//236 216//234 231//256 232//243
f 225//237 224//235 239//257 240//245
f 237//253 236//251 251//258 252//259
f 230//254 229//252 244//260 245//261
f 238//255 237//253 252//259 253//262
f 231//256 230//254 245//261 246//263
f 239//257 238//255 253//262 254//264
f 232//243 231//256 246//263 247//265
f 240//245 239//257 254//264 255//266
f 233//244 232//243 247//265 248//267
f 241//246 240//245 255//266 256//268
f 234//247 233//244 248//267 249//269
f 227//248 257//24 242//270
f 1//26 241//246 256//268
f 235//249 234//247 249//269 250//271
f 228//250 227//248 242//270 243//272
f 236//251 235//249 250//271 251//258
f 229//252 228//250 243//272 244//260
f 256//268 255//266 271//273 272//274
f 249//269 248//267 264//275 265//276
f 242//270 257//24 258//277
f 1//26 256//268 272//274
f 250//271 249//269 265//276 266//278
f 243//272 242//270 258//277 259//279
f 251//258 250//271 266//278 267//280
f 244//260 243//272 259//279 260//281
f 252//259 251//258 267//280 268//282
f 245//261 244//260 260//281 261//283
f 253//262 252//259 268//282 269//284
f 246//263 245//261 261//283 262//285
f 254//264 253//262 269//284 270//286
f 247//265 246//263 262//285 263//287
f 255//266 254//264 270//286 271//273
f 248//267 247//265 263//287 264//275
f 261//283 260//281 275//288 276//289
f 269//284 268//282 283//290 284//291
f 262//285 261//283 276//289 277//292
f 270//286 269//284 284//291 285//293
f 263//287 262//285 277//292 278//294
f 271//273 270//286 285//293 286//295
f 264//275 263//287 278//294 279//296
f 272//274 271//273 286//295 287//297
f 265//276 264//275 279//296 280//298
f 258//277 257//24 273//299
f 1//26 272//274 287//297
f 266//278 265//276 280//298 281//300
f 259//279 258//277 273//299 274//301
f 267//280 266//278 281//300 282//302
f 260//281 259//279 274//301 275//288
f 268//282 267//280 282//302 283//290
f 280//298 279//296 294//303 295//304
f 273//299 257//24 288//305
f 1//26 287//297 302//306
f 281//300 280//298 295//304 296//307
f 274//301 273//299 288//305 289//308
f 282//302 281//300 296//307 297//309
f 275//288 274//301 289//308 290//310
f 283//290 282//302 297//309 298//311
f 276//289 275//288 290//310 291//312
f 284//291 283//290 298//311 299//313
f 277//292 276//289 291//312 292//314
f 285//293 284//291 299//313 300//315
f 278//294 277//292 292//314 293//316
f 286//295 285//293 300//315 301//317
f 279//296 278//294 293//316 294//303
f 287//297 286//295 301//317 302//306
f 299//313 298//311 313//318 314//319
f 292//314 291//312 306//320 307//321
f 300//315 299//313 314//319 315//322
f 293//316 292//314 307//321 308//323
f 301//317 300//315 315//322 316//324
f 294//303 293//316 308//323 309//325
f 302//306 301//317 316//324 317//326
f 295//304 294//303 309//325 310//327
f 288//305 257//24 303//328
f 1//26 302//306 317//326
f 296//307 295//304 310//327 311//329
f 289//308 288//305 303//328 304//330
f 297//309 296//307 311//329 312//331
f 290//310 289//308 304//330 305//332
f 298//311 297//309 312//331 313//318
f 291//312 290//310 305//332 306//320
f 1//26 317//326 332//333
f 311//329 310//327 325//334 326//335
f 304//330 303//328 318//336 319//337
f 312//331 311//329 326//335 327//338
f 305//332 304//330 319//337 320//339
f 313//318 312//331 327//338 328//340
f 306//320 305//332 320//339 321//341
f 314//319 313//318 328//340 329//342
f 307//321 306//320 321//341 322//343
f 315//322 314//319 329//342 330//344
f 308//323 307//321 322//343 323//345
f 316//324 315//322 330//344 331//346
f 309//325 308//323 323//345 324//347
f 317//326 316//324 331//346 332//333
f 310//327 309//325 324//347 325//334
f 303//328 257//24 318//336
f 330//344 329//342 344//348 345//349
f 323//345 322//343 337//350 338//351
f 331//346 330//344 345//349 346//352
f 324//347 323//345 338//351 339//353
f 332//333 331//346 346//352 347//354
f 325//334 324//347 339//353 340//355
f 318//336 257//24 333//356
f 1//26 332//333 347//354
f 326//335 325//334 340//355 341//357
f 319//337 318//336 333//356 334//358
f 327//338 326//335 341//357 342//359
f 320//339 319//337 334//358 335//360
f 328//340 327//338 342//359 343//361
f 321//341 320//339 335//360 336//362
f 329//342 328//340 343//361 344//348
f 322//343 321//341 336//362 337//350
f 334//358 333//356 348//363 349//364
f 342//359 341//357 356//365 357//366
f 335//360 334//358 349//364 350//367
f 343//361 342//359 357//366 358//368
f 336//362 335//360 350//367 351//369
f 344//348 343//361 358//368 359//370
f 337//350 336//362 351//369 352//371
f 345//349 344//348 359//370 360//372
f 338//351 337//350 352//371 353//373
f 346//352 345//349 360//372 361//374
f 339//353 338//351 353//373 354//375
f 347//354 346//352 361//374 362//376
f 340//355 339//353 354//375 355//377
f 333//356 257//24 348//363
f 1//26 347//354 362//376
f 341//357 340//355 355//377 356//365
f 353//373 352//371 367//378 368//379
f 361//374 360//372 375//380 376//381
f 354//375 353//373 368//379 369//382
f 362//376 361//374 376//381 377//383
f 355//377 354//375 369//382 370//384
f 348//363 257//24 363//385
f 1//26 362//376 377//383
f 356//365 355//377 370//384 371//386
f 349//364 348//363 363//385 364//387
f 357//366 356//365 371//386 372//388
f 350//367 349//364 364//387 365//389
f 358//368 357//366 372//388 373//390
f 351//369 350//367 365//389 366//391
f 359//370 358//368 373//390 374//392
f 352//371 351//369 366//391 367//378
f 360//372 359//370 374//392 375//380
f 372//388 371//386 386//393 387//394
f 365//389 364//387 379//395 380//396
f 373//390 372//388 387//394 388//397
f 366//391 365//389 380//396 381//398
f 374//392 373//390 388//397 389//399
f 367//378 366//391 381//398 382//400
f 375//380 374//392 389//399 390//401
f 368//379 367//378 382//400 383//402
f 376//381 375//380 390//401 391//403
f 369//382 368//379 383//402 384//404
f 377//383 376//381 391//403 392//405
f 370//384 369//382 384//404 385//406
f 363//385 257//24 378//407
f 1//26 377//383 392//405
f 371//386 370//384 385//406 386//393
f 364//387 363//385 378//407 379//395
f 391//403 390//401 405//408 406//409
f 384//404 383//402 398//410 399//411
f 392//405 391//403 406//409 407//412
f 385//406 384//404 399//411 400//413
f 378//407 257//24 393//414
f 1//26 392//405 407//412
f 386//393 385//406 400//413 401//415
f 379//395 378//407 393//414 394//416
f 387//394 386//393 401//415 402//417
f 380//396 379//395 394//416 395//418
f 388//397 387//394 402//417 403//419
f 381//398 380//396 395//418 396//420
f 389//399 388//397 403//419 404//421
f 382//400 381//398 396//420 397//422
f 390//401 389//399 404//421 405//408
f 383//402 382//400 397//422 398//410
f 395//418 394//416 409//423 410//424
f 403//419 402//417 417//425 418//426
f 396//420 395//418 410//424 411//427
f 404//421 403//419 418//426 419//428
f 397//422 396//420 411//427 412//429
f 405//408 404//421 419//428 420//430
f 398//410 397//422 412//429 413//431
f 406//409 405//408 420//430 421//432
f 399//411 398//410 413//431 414//433
f 407//412 406//409 421//432 422//434
f 400//413 399//411 414//433 415//435
f 393//414 257//24 408//436
f 1//26 407//412 422//434
f 401//415 400//413 415//435 416//437
f 394//416 393//414 408//436 409//423
f 402//417 401//415 416//437 417//425
f 414//433 413//431 428//438 429//439
f 422//434 421//432 436//440 437//441
f 415//435 414//433 429//439 430//442
f 408//436 257//24 423//443
f 1//26 422//434 437//441
f 416//437 415//435 430//442 431//444
f 409//423 408//436 423//443 424//445
f 417//425 416//437 431//444 432//446
f 410//424 409//423 424//445 425//447
f 418//426 417//425 432//446 433//448
f 411//427 410//424 425//447 426//449
f 419//428 418//426 433//448 434//450
f 412//429 411//427 426//449 427//451
f 420//430 419//428 434//450 435//452
f 413//431 412//429 427//451 428//438
f 421//432 420//430 435//452 436//440
f 433//448 432//446 447//453 448//454
f 426//449 425//447 440//455 441//456
f 434//450 433//448 448//454 449//457
f 427//451 426//449 441//456 442//458
f 435//452 434//450 449//457 450//459
f 428//438 427//451 442//458 443//460
f 436//440 435//452 450//459 451//461
f 429//439 428//438 443//460 444//462
f 437//441 436//440 451//461 452//463
f 430//442 429//439 444//462 445//464
f 423//443 257//24 438//465
f 1//26 437//441 452//463
f 431//444 430//442 445//464 446//466
f 424//445 423//443 438//465 439//467
f 432//446 431//444 446//466 447//453
f 425//447 424//445 439//467 440//455
f 452//463 451//461 466//468 467//469
f 445//464 444//462 459//470 460//471
f 438//465 257//24 453//472
f 1//26 452//463 467//469
f 446//466 445//464 460//471 461//473
f 439//467 438//465 453//472 454//474
f 447//453 446//466 461//473 462//475
f 440//455 439//467 454//474 455//476
f 448//454 447//453 462//475 463//477
f 441//456 440//455 455//476 456//478
f 449//457 448//454 463//477 464//479
f 442//458 441//456 456//478 457//480
f 450//459 449//457 464//479 465//481
f 443//460 442//458 457//480 458//482
f 451//461 450//459 465//481 466//468
f 444//462 443//460 458//482 459//470
f 464//479 463//477 478//6 479//5
f 457//480 456//478 471//1 472//9
f 465//481 464//479 479//5 480//11
f 458//482 457//480 472//9 473//13
f 466//468 465//481 480//11 481//15
f 459//470 458//482 473//13 474//17
f 467//469 466//468 481//15 482//19
f 460//471 459//470 474//17 475//21
f 453//472 257//24 468//23
f 1//26 467//469 482//19
f 461//473 460//471 475//21 476//27
f 454//474 453//472 468//23 469//29
f 462//475 461//473 476//27 477//31
f 455//476 454//474 469//29 470//2
f 463//477 462//475 477//31 478//6
f 456//478 455//476 470//2 471//1
